{
    "correlationId": "abbg561359az-1078-49e5-b426-fc397de8617b",
    "authorizationId": "fghic393de8617z-b426-49e5-1078-a560358a",
    "capture": false,
    "amount": {
        "currency": "ARS",
        "total": 110.00,
        "detail": {
            "tax": 10.00,
            "taxBase": 100.00
        }
    },
    "order": {
        "id":1012,
        "referenceCode": "TestDrive_1027A"
    },
    "merchant": {
        "id": 158745,
        "name": "SKODA AUTO a.s.",
        "merchantCategoryCode": "5013",
        "accountId": 1
    },
    "route": {
        "id": "1",
        "type": "DEFAULT",
        "extraParameters": {
            "AUTHORIZATION_VALIDITY_DAYS": "15",
            "MERCHANT_NUMBER": "80000100",
            "USER_ID": "80000100isuper",
            "PASSWORD": "super"
        }
    },
    "paymentInstrument": {
        "PAYMENT_TYPE": "CREDIT_CARD",
        "PAYMENT_BRAND": "MASTERCARD",
        "CARD_TOKEN": "661b1be3-99ee-4d8b-bbb5-878a723d5fe7",
        "INSTALLMENTS": "1"
    }
}